<?xml version="1.0" encoding="UTF-8"?>
<session version="1.0">
<refactoring accessors="true" comment="Delete element from project &apos;projekt&apos;&#x0A;- Original project: &apos;projekt&apos;&#x0A;- Original element: &apos;projekt.Podatak.java&apos;" description="Delete element" element1="/src\/main\/java&lt;projekt{Podatak.java" elements="1" flags="589830" id="org.eclipse.jdt.ui.delete" resources="0" stamp="1524570599773" subPackages="false" version="1.0"/>
</session>