INDEX VERSION 1.129+C:\Users\marko-pc\Desktop\PR_INZ\Izvorni kod\.metadata\.plugins\org.eclipse.jdt.core
3878457715.index
4143847152.index
2604256100.index
1191567448.index
1847969816.index
107471006.index
317600393.index
3172068124.index
818881941.index
3566292131.index
117311024.index
3497294636.index
188619105.index
4081537932.index
375126478.index
1583927216.index
1812762962.index
1798050234.index
1627648226.index
702108142.index
497925240.index
4166838873.index
1904741536.index
904512068.index
1004716384.index
2017505986.index
290354053.index
2654250236.index
1164630721.index
2405235164.index
1600377768.index
2167310551.index
603653212.index
617583540.index
3256285438.index
2927524569.index
3178691722.index
2831536327.index
2312443017.index
4171428053.index
3681335767.index
681865971.index
3119455041.index
4114510164.index
1860608096.index
3433883940.index
486699731.index
